21

4
Katherine Sosa
Emir Whitaker
Ivanna Faulkner
Jabari Blankenship
1 4 2 3
4 3 2 1
1 3 4 2
1 2 3 4
4 3 2 1
4 3 1 2
1 2 3 4

10
Katherine Sosa
Emir Whitaker
Ivanna Faulkner
Jabari Blankenship
Rosalee Rodgers
Mathias Galindo
Corinne Roth
Roy Webster
Kensley Franklin
Simon Webb
9 6 8 4 3 7 1 5 10 2
9 10 7 2 4 8 1 5 3 6
1 4 9 5 2 3 10 7 8 6

2
Katherine Sosa
Emir Whitaker
2 1

4
Katherine Sosa
Emir Whitaker
Ivanna Faulkner
Jabari Blankenship
2 4 1 3
4 2 1 3
1 4 3 2

7
Katherine Sosa
Emir Whitaker
Ivanna Faulkner
Jabari Blankenship
Rosalee Rodgers
Mathias Galindo
Corinne Roth
6 2 3 7 4 5 1
7 1 4 6 5 2 3
4 2 6 5 7 1 3
6 2 4 3 7 1 5
3 1 5 4 6 2 7
7 1 6 4 2 3 5
7 4 5 6 1 2 3
5 4 6 1 2 3 7
4 2 3 7 6 5 1
1 5 2 6 4 7 3

10
Katherine Sosa
Emir Whitaker
Ivanna Faulkner
Jabari Blankenship
Rosalee Rodgers
Mathias Galindo
Corinne Roth
Roy Webster
Kensley Franklin
Simon Webb
7 4 9 5 3 1 6 2 8 10
9 3 5 8 1 6 4 7 10 2
6 9 8 2 7 4 10 3 1 5
10 9 7 4 8 5 2 6 3 1
6 3 4 10 5 1 2 7 9 8
1 4 7 2 6 5 3 8 10 9
1 9 7 3 2 10 6 4 5 8
4 8 9 6 10 5 1 2 3 7

4
Katherine Sosa
Emir Whitaker
Ivanna Faulkner
Jabari Blankenship
1 2 4 3
2 3 4 1
3 4 2 1
4 2 3 1

5
Katherine Sosa
Emir Whitaker
Ivanna Faulkner
Jabari Blankenship
Rosalee Rodgers
2 1 4 3 5
5 1 3 2 4
1 5 4 3 2
1 2 4 3 5

8
Katherine Sosa
Emir Whitaker
Ivanna Faulkner
Jabari Blankenship
Rosalee Rodgers
Mathias Galindo
Corinne Roth
Roy Webster
4 5 7 8 3 2 6 1
5 7 8 1 6 4 3 2
8 4 2 3 6 1 5 7
8 3 5 1 4 7 6 2
8 1 7 2 3 4 5 6
2 1 3 7 6 5 4 8
5 6 3 2 8 4 1 7
1 4 2 7 6 8 3 5

4
Katherine Sosa
Emir Whitaker
Ivanna Faulkner
Jabari Blankenship
2 3 4 1
4 1 3 2
4 1 3 2
3 1 2 4
3 2 1 4
4 1 3 2
2 3 1 4
1 2 4 3
2 1 4 3

2
Katherine Sosa
Emir Whitaker
2 1
1 2
1 2
1 2

10
Katherine Sosa
Emir Whitaker
Ivanna Faulkner
Jabari Blankenship
Rosalee Rodgers
Mathias Galindo
Corinne Roth
Roy Webster
Kensley Franklin
Simon Webb
10 3 9 7 8 6 4 2 1 5
10 3 1 2 8 5 4 9 6 7

5
Katherine Sosa
Emir Whitaker
Ivanna Faulkner
Jabari Blankenship
Rosalee Rodgers
5 1 4 3 2
5 2 3 4 1
2 4 3 5 1

1
Katherine Sosa
1
1
1
1
1

1
Katherine Sosa
1
1
1
1
1
1
1
1
1
1

2
Katherine Sosa
Emir Whitaker
2 1
2 1
1 2
2 1
2 1
1 2
1 2
1 2
2 1
2 1

6
Katherine Sosa
Emir Whitaker
Ivanna Faulkner
Jabari Blankenship
Rosalee Rodgers
Mathias Galindo
4 6 3 5 2 1

2
Katherine Sosa
Emir Whitaker
2 1
1 2
1 2
2 1
2 1
1 2
2 1
2 1

3
Katherine Sosa
Emir Whitaker
Ivanna Faulkner
2 3 1
3 1 2
2 3 1
3 1 2
3 1 2
3 1 2
1 2 3

4
Katherine Sosa
Emir Whitaker
Ivanna Faulkner
Jabari Blankenship
1 2 4 3
2 3 4 1
4 1 2 3
3 4 2 1

10
Katherine Sosa
Emir Whitaker
Ivanna Faulkner
Jabari Blankenship
Rosalee Rodgers
Mathias Galindo
Corinne Roth
Roy Webster
Kensley Franklin
Simon Webb
9 7 10 4 2 6 8 3 1 5
