20

1
A
1

1
A
1
1

2
A
B
1 2
2 1

3
A
B
C
1 2 3
2 1 3
3 1 2

3
A
B
C
1 2 3
1 2 3
2 1 3
2 1 3
3 1 2

3
A
B
C
1 2 3
1 2 3
2 1 3
2 1 3
1 2 3
1 2 3
2 1 3
2 1 3
3 1 2

4
A
B
C
D
1 2 3 4
1 2 3 4
2 1 3 4
2 1 3 4
3 1 2 4
3 1 2 4
4 1 2 3
4 1 2 3

4
A
B
C
D
1 2 3 4
1 2 3 4
2 1 3 4
2 1 3 4
3 4 1 2
4 3 2 1

4
A
B
C
D
1 2 3 4
1 2 3 4
1 2 3 4
1 2 3 4
2 1 3 4
2 1 3 4
2 1 3 4
2 1 3 4
3 4 1 2
3 1 4 2
3 2 4 1
4 3 2 1
4 3 2 1
4 3 2 1
4 3 2 1

8
1
2
3
4
5
6
7
8
7 1 2 3 4 5 6 8

20
1
2
3
4
5
6
7
8
9
10
11
12
13
14
15
16
17
18
19
20
20 1 2 3 4 5 6 7 8 9 10 11 12 13 14 15 16 17 18 19

20
1
2
3
4
5
6
7
8
9
10
11
12
13
14
15
16
17
18
19
20
20 1 2 3 4 5 6 7 8 9 10 11 12 13 14 15 16 17 18 19
1 20 2 3 4 5 6 7 8 9 10 11 12 13 14 15 16 17 18 19

10
1
2
3
4
5
6
7
8
9
20
10 1 2 3 4 5 6 7 8 9
1 10 2 3 4 5 6 7 8 9
3 10 2 1 4 5 6 7 8 9

10
1
2
3
4
5
6
7
8
9
20
10 1 2 3 4 5 6 7 8 9
10 1 2 3 4 5 6 7 8 9
1 10 2 3 4 5 6 7 8 9
1 10 2 3 4 5 6 7 8 9
3 10 2 1 4 5 6 7 8 9
3 10 2 1 4 5 6 7 8 9
2 10 3 1 4 5 6 7 8 9

10
1
2
3
4
5
6
7
8
9
20
10 1 2 3 4 5 6 7 8 9
10 1 2 3 4 5 6 7 8 9
1 10 2 3 4 5 6 7 8 9
1 10 2 3 4 5 6 7 8 9
3 10 2 1 4 5 6 7 8 9
3 10 2 1 4 5 6 7 8 9
2 10 3 1 4 5 6 7 8 9
4 1 3 10 2 5 6 7 8 9

4
Winner
Loser
Loser 2
Loser 3
1 2 3 4
1 2 3 4
1 2 3 4
2 3 1 4
2 3 1 4
2 3 1 4
3 1 2 4
3 2 1 4
4 1 2 3

1
Winner
1
1
1
1
1
1
1
1
1
1
1

2
A
B
1 2
2 1
1 2
2 1
1 2
2 1
1 2
2 1
1 2
2 1
1 2
2 1
1 2
2 1
1 2
2 1

4
1
2
3
4
2 4 1 3
3 2 4 1
1 2 3 4
4 1 3 2
2 1 3 4
3 4 1 2
1 2 4 3
3 2 1 4
1 3 2 4
4 2 3 1
3 4 2 1

4
A
B
C
D
1 2 3 4
2 1 3 4
2 1 3 4
2 1 3 4
2 1 3 4
3 1 2 4
3 1 2 4
3 1 2 4
3 1 2 4
3 1 2 4
3 1 2 4
4 3 1 2
4 3 1 2
4 3 1 2
4 3 1 2
4 3 1 2
4 3 1 2
