20

3
Petra Kidd
Sharron Whitaker
Hyman Pope
1 2 3
1 3 2
3 1 2
2 3 1
1 3 2
3 1 2
2 1 3
3 1 2
2 3 1

2
Hyman Pope
Michale Stevenson
2 1

5
Jason Baldwin
Blake Ryan
Kristin Johnston
Cecilia Kane
Petra Kidd
4 5 2 1 3
4 5 3 2 1

6
Camille Klein
Jerald Burton
Tammy Guerra
Jason Baldwin
Bernardo Little
Sophia Bryan
3 5 4 6 2 1
4 6 1 2 5 3
6 3 5 2 1 4
6 5 3 1 2 4
1 5 6 3 2 4
5 4 6 3 1 2
4 3 5 6 2 1
4 2 3 5 6 1
5 4 6 2 1 3
2 4 3 6 5 1
2 5 1 3 6 4
4 3 1 5 6 2
3 5 4 6 1 2
6 2 3 4 5 1

2
Camille Klein
Angel Gibbs
1 2
2 1
2 1
2 1
1 2
2 1

2
Sharron Whitaker
Rex Merritt
2 1
1 2
1 2
2 1
1 2
2 1

5
Ron Francis
Harriet Ingram
Tammy Guerra
Jason Baldwin
Myra Thompson
5 2 4 1 3
4 1 5 3 2
1 5 4 3 2
5 2 3 1 4
5 1 4 2 3
4 3 1 5 2
5 2 1 3 4
2 3 1 4 5

3
Sophia Bryan
Petra Kidd
Michale Stevenson
2 3 1
1 2 3

5
Caitlin Zhang
Sophia Bryan
Jc Kerr
Hyman Pope
Myra Thompson
2 4 1 3 5
5 3 1 4 2
4 1 5 3 2
4 5 1 3 2
1 3 4 5 2

4
Tammy Guerra
Cecilia Kane
Camille Klein
Caitlin Zhang
1 2 4 3
2 4 3 1
1 2 4 3

5
Blake Ryan
Ron Francis
Harriet Ingram
Jc Kerr
Caitlin Zhang
3 5 4 1 2
3 2 1 5 4
3 5 2 1 4
5 2 4 1 3
3 4 1 5 2
2 3 1 4 5
4 2 3 1 5
2 3 4 1 5
4 5 3 1 2
5 1 2 3 4
4 3 1 2 5
3 2 5 4 1
3 1 2 4 5

3
Jc Kerr
Ron Francis
Camille Klein
1 2 3
1 3 2
2 1 3
1 3 2
2 3 1

5
Jason Baldwin
Cecilia Kane
Camille Klein
Harriet Ingram
Myra Thompson
3 4 5 2 1
2 5 4 3 1
4 2 5 1 3

5
Camille Klein
Jc Kerr
Rex Merritt
Caitlin Zhang
Cecilia Kane
1 5 3 2 4
5 2 1 4 3
1 3 2 5 4
1 5 4 2 3
2 1 3 5 4
4 2 3 1 5
3 4 5 2 1
1 3 2 5 4
3 4 5 2 1
5 4 2 3 1
4 1 5 2 3
3 5 1 2 4
2 3 5 4 1

5
Sharron Whitaker
Bernardo Little
Sophia Bryan
Jason Baldwin
Myra Thompson
5 4 1 2 3
1 4 5 3 2
2 5 4 1 3
3 5 1 2 4
1 4 5 2 3

3
Petra Kidd
Ron Francis
Angel Gibbs
2 1 3
2 1 3
3 1 2
3 2 1
2 1 3
3 1 2
1 3 2
2 1 3

6
Myra Thompson
Harriet Ingram
Blake Ryan
Petra Kidd
Ron Francis
Sharron Whitaker
4 2 6 1 5 3
6 2 1 4 3 5
1 2 4 6 5 3
5 3 2 1 4 6
1 3 4 2 6 5
4 5 3 2 6 1
6 1 2 5 3 4
5 4 2 6 3 1
3 6 4 5 2 1
3 6 2 5 4 1
5 2 3 4 1 6
2 3 5 4 1 6
5 4 2 3 6 1
1 6 2 3 4 5
5 6 4 1 2 3

5
Caitlin Zhang
Michale Stevenson
Sharron Whitaker
Ron Francis
Bernardo Little
2 3 1 4 5
3 1 5 4 2
1 3 4 2 5
5 3 2 1 4
2 5 4 3 1

4
Myra Thompson
Blake Ryan
Harriet Ingram
Jason Baldwin
4 3 2 1
2 4 3 1
1 3 4 2

5
Cecilia Kane
Harriet Ingram
Angel Gibbs
Hyman Pope
Kristin Johnston
5 3 1 4 2
4 5 2 1 3
2 4 1 3 5
3 1 4 5 2
5 4 1 2 3
5 2 3 4 1
4 2 1 3 5
4 1 3 5 2
