20

5
Jasmine Wang
Adithya Arunganesh
David Ortiz
Dr Norman
Goldin Vo
4 2 3 5 1

1
Adithya Arunganesh
1

2
Annabel To
Kenneth Le
2 1
1 2
2 1
1 2

7
Thomas Langford
Kyle Alvarez
Dr Norman
Jasmine Wang
Malithy Wimalasooriya
Annabel To
Joseph Kafle
4 5 2 3 6 7 1
3 7 1 2 6 5 4
7 2 4 5 6 1 3
2 1 5 6 3 7 4
5 2 1 3 4 6 7

4
Annabel To
Sadie Duran
Kenneth Le
Malithy Wimalasooriya
1 3 4 2
3 2 1 4
1 4 2 3

3
Kelly Thai
Kyle Alvarez
Jesse Zou
3 2 1
3 1 2
2 3 1
3 2 1
2 1 3

1
Daphne Lopez
1
1
1

5
Jesse Zou
Thomas Langford
Joseph Kafle
Sadie Duran
David Ortiz
4 1 5 3 2
5 3 2 1 4

3
Goldin Vo
Malithy Wimalasooriya
Adithya Arunganesh
1 2 3
1 2 3

4
Thomas Langford
Jesse Zou
Annabel To
Daphne Lopez
4 2 3 1
2 4 3 1
1 4 2 3

10
Annabel To
Dr Norman
Kyle Alvarez
Thomas Langford
Sadie Duran
Frank Sosa
Adithya Arunganesh
Joseph Kafle
Jasmine Wang
David Ortiz
1 8 9 7 5 2 10 6 4 3
2 5 4 1 8 7 3 9 10 6
4 8 9 10 3 2 5 6 7 1
3 1 6 7 10 9 4 2 8 5
7 3 2 5 1 4 9 8 10 6
8 1 3 7 5 10 6 9 4 2

1
Sadie Duran
1
1
1

10
Daphne Lopez
Jasmine Wang
Sadie Duran
Adithya Arunganesh
Dr Norman
Kenneth Le
Kyle Alvarez
Goldin Vo
Joseph Kafle
Thomas Langford
10 9 4 6 8 5 3 1 2 7
8 3 1 10 5 6 9 7 4 2

6
Dr Norman
Malithy Wimalasooriya
Eddie Cazares
Jesse Zou
Daphne Lopez
Annabel To
3 5 4 6 2 1
2 5 4 6 1 3
1 3 2 6 4 5
6 5 2 1 3 4
4 6 2 5 1 3

3
Jasmine Wang
Goldin Vo
Joseph Kafle
1 3 2
1 2 3
1 3 2

2
Goldin Vo
Frank Sosa
1 2
2 1

10
David Ortiz
Malithy Wimalasooriya
Joseph Kafle
Jesse Zou
Goldin Vo
Jasmine Wang
Eddie Cazares
Sadie Duran
Dr Norman
Frank Sosa
4 6 2 5 7 3 8 1 9 10

8
Sadie Duran
Annabel To
Kenneth Le
Daphne Lopez
Malithy Wimalasooriya
David Ortiz
Kyle Alvarez
Dr Norman
7 3 4 2 8 1 5 6
4 2 6 7 8 1 3 5
2 3 5 1 8 6 7 4

6
Kenneth Le
Kelly Thai
Goldin Vo
Daphne Lopez
Joseph Kafle
Sadie Duran
4 5 2 1 6 3
3 2 1 6 4 5
4 2 1 6 5 3
2 5 3 1 6 4
3 6 1 4 5 2
5 1 3 4 6 2
5 4 1 2 6 3
2 3 4 5 6 1
1 6 3 5 4 2
3 4 5 6 1 2
4 5 3 1 6 2
3 6 5 2 1 4
1 4 3 6 5 2
1 4 6 2 5 3
2 3 4 5 1 6
5 4 2 1 6 3
2 4 3 6 1 5
3 1 5 6 4 2
4 2 6 5 1 3
2 5 4 3 6 1

9
Kenneth Le
Eddie Cazares
Goldin Vo
Adithya Arunganesh
Thomas Langford
Dr Norman
Kyle Alvarez
Annabel To
Jesse Zou
2 5 7 4 1 8 3 6 9
7 1 6 3 2 8 5 4 9
1 7 3 8 2 4 6 5 9
8 9 3 5 7 2 6 4 1
4 6 5 8 2 7 9 1 3
5 4 7 9 6 1 3 2 8
9 8 6 3 1 7 5 4 2
4 9 3 5 2 7 1 6 8
9 3 6 8 1 2 7 5 4
1 3 2 4 6 7 8 9 5
